<svg width="32" height="32" viewBox="0 0 32 32" fill="none" xmlns="http://www.w3.org/2000/svg">
<path fill-rule="evenodd" clip-rule="evenodd" d="M17 5V6.29291L18.2929 5H17ZM17 10.2929V7.70712L19.7071 5H22.2929L17 10.2929ZM17 11.7071V14.2929L26.2929 5H23.7071L17 11.7071ZM17 18.2929V15.7071L27 5.70712V8.29291L17 18.2929ZM17 19.7071V22.2929L27 12.2929V9.70712L17 19.7071ZM17 26.2929V23.7071L27 13.7071V16.2929L17 26.2929ZM17.7071 27H20.2929L27 20.2929V17.7071L17.7071 27ZM24.2929 27H21.7071L27 21.7071V24.2929L24.2929 27ZM25.7071 27H27V25.7071L25.7071 27ZM16 27V5H5V27H16ZM16 4H28V28H16H4V4H16Z" fill="#B4D678"/>
</svg>
