<svg width="28" height="17" viewBox="0 0 28 17" fill="none" xmlns="http://www.w3.org/2000/svg">
<path d="M14.0003 12.609C16.3721 12.609 18.2948 10.6863 18.2948 8.31453C18.2948 5.94273 16.3721 4.02001 14.0003 4.02001C11.6285 4.02001 9.70576 5.94273 9.70576 8.31453C9.70576 10.6863 11.6285 12.609 14.0003 12.609Z" fill="#B4D678"/>
<path fill-rule="evenodd" clip-rule="evenodd" d="M0.245786 7.98395C0.192934 8.06394 0.148513 8.13301 0.112568 8.1899C5.99231e-05 8.25575 0.000315065 8.25618 0.000315065 8.25618L0.00250782 8.25992L0.00691341 8.2674L0.0208112 8.29069L0.0352254 8.31454L0.0204967 8.33891L0.00659919 8.3622L0.00219227 8.36967L0.000624746 8.37234L5.07992e-09 8.37341C5.07992e-09 8.37341 -0.000254625 8.37385 0.113255 8.44028C0.149134 8.49706 0.193429 8.56593 0.2461 8.64565C0.400034 8.87863 0.626017 9.20508 0.922965 9.59381C1.51566 10.3697 2.39778 11.4025 3.56172 12.4371C5.88446 14.5018 9.3971 16.6296 14.0002 16.6296C18.6032 16.6296 22.1159 14.5018 24.4386 12.4371C25.6025 11.4025 26.4846 10.3697 27.0774 9.59381C27.3743 9.20508 27.6003 8.87863 27.7542 8.64565C27.8071 8.56565 27.8515 8.49659 27.8874 8.43969C27.9999 8.37385 27.9997 8.37341 27.9997 8.37341L27.9975 8.36967L27.9931 8.3622L27.9792 8.33891L27.9648 8.31506L27.9795 8.29069L27.9934 8.2674L27.9978 8.25993L28 8.25619C28 8.25619 28.0003 8.25575 27.8868 8.18932C27.8509 8.13254 27.8066 8.06367 27.7539 7.98395C27.6 7.75097 27.374 7.42452 27.077 7.03579C26.4843 6.25989 25.6022 5.22706 24.4383 4.19245C22.1155 2.12779 18.6029 0 13.9998 0C9.39678 0 5.88414 2.12779 3.5614 4.19245C2.39746 5.22706 1.51535 6.25989 0.92265 7.03579C0.625703 7.42452 0.399721 7.75097 0.245786 7.98395ZM22.8827 5.94244C23.8412 6.79441 24.5859 7.64793 25.1066 8.315C24.5859 8.98201 23.8413 9.83536 22.883 10.6872C20.822 12.5192 17.84 14.2882 14.0002 14.2882C10.1603 14.2882 7.17836 12.5192 5.11727 10.6872C4.1588 9.83519 3.41407 8.98166 2.89337 8.3146C3.41405 7.64759 4.15868 6.79424 5.11695 5.94244C7.17804 4.11036 10.16 2.34141 13.9998 2.34141C17.8397 2.34141 20.8216 4.11036 22.8827 5.94244Z" fill="#B4D678"/>
</svg>
