<svg width="28" height="28" viewBox="0 0 28 28" fill="none" xmlns="http://www.w3.org/2000/svg">
<path fill-rule="evenodd" clip-rule="evenodd" d="M8.99987 6.51677C10.4799 5.52784 12.22 5 14 5C16.387 5 18.6761 5.94821 20.364 7.63604C22.0518 9.32387 23 11.6131 23 14C23 15.78 22.4722 17.5201 21.4832 19.0001C20.4943 20.4802 19.0887 21.6337 17.4442 22.3149C15.7996 22.9961 13.99 23.1743 12.2442 22.8271C10.4984 22.4798 8.89472 21.6226 7.63604 20.364C6.37737 19.1053 5.5202 17.5016 5.17294 15.7558C4.82567 14.01 5.0039 12.2004 5.68509 10.5558C6.36628 8.91131 7.51983 7.50571 8.99987 6.51677ZM18.1668 7.76398C16.9334 6.93987 15.4834 6.5 14 6.5C12.0109 6.5 10.1032 7.29018 8.6967 8.6967C7.29018 10.1032 6.5 12.0109 6.5 14C6.5 15.4834 6.93987 16.9334 7.76398 18.1668C8.58809 19.4001 9.75943 20.3614 11.1299 20.9291C12.5003 21.4968 14.0083 21.6453 15.4632 21.3559C16.918 21.0665 18.2544 20.3522 19.3033 19.3033C20.3522 18.2544 21.0665 16.918 21.3559 15.4632C21.6453 14.0083 21.4968 12.5003 20.9291 11.1299C20.3614 9.75943 19.4001 8.58809 18.1668 7.76398Z" fill="#B4D678"/>
<path fill-rule="evenodd" clip-rule="evenodd" d="M0 0H28V28H0V0ZM1.5 26.5H26.5V1.5H1.5V26.5Z" fill="#B4D678"/>
</svg>
